{
  "project_info": {
    "project_number": "",
    "project_id": ""
  },
  "client": [
    {
      "client_info": {
        "mobilesdk_app_id": "1:123456789012:android:1234567890123456",
        "android_client_info": {
          "package_name": "in.org.celesta.iitp"
        }
      },
      "oauth_client": [
        {
          "client_id": "",
          "client_type": 3
        },
        {
          "client_id": "",
          "client_type": 1,
          "android_info": {
            "package_name": "in.org.celesta.iitp",
            "certificate_hash": ""
          }
        }
      ],
      "api_key": [
        {
          "current_key": ""
        }
      ],
      "services": {
        "analytics_service": {
          "status": 2,
          "analytics_property": {
            "tracking_id": ""
          }
        },
        "appinvite_service": {
          "status": 1,
          "other_platform_oauth_client": []
        },
        "ads_service": {
          "status": 1
        }
      }
    }
  ],
  "configuration_version": "1"
}
